{"tracks":[{"id":130070,"number":null,"title":"Something Just Like This","alt_title":"","lang_code":"en","runtime":245,"release_date":"2017-02-22","has_video":true,"genres":["pop"],"source":"SONY MUSIC","images":{"poster":{"url":"https://charaku.imgix.net/assets/a57625bbecee7b4e7fe932a31cd92319d2a32855?auto=compress"}},"lyrics_count":1,"block":true,"original_lyric_url":null,"has_lrc":false,"music_feature_key":11,"music_feature_is_major":0,"block_reason":{"country_blocked":false,"platform_blocked":true,"time_lapsed_blocked":false},"track_artists":[{"type":"main","artist":{"id":5727,"name":"Coldplay","alt_name":null,"gender":null,"lang_codes":["en"],"images":{"poster":{"url":"https://charaku.imgix.net/assets/9-Er4v1l_Q5hXNbxqCyavQ_Coldplay.jpg?auto=compress"}},"total_tracks":72}},{"type":"main","artist":{"id":916,"name":"The Chainsmokers","alt_name":"","gender":"m","lang_codes":["en"],"images":{"poster":{"url":"https://charaku.imgix.net/assets/hNRThJ_bKk8LtvCHIxEjXQ_The_Chainsmokers.jpg?auto=compress"}},"total_tracks":25}}]},{"id":81114,"number":null,"title":"聽見下雨的聲音","alt_title":"Ting Jian Xia Yu De Sheng Yin","lang_code":"zh","runtime":280,"release_date":"2014-12-24","has_video":true,"genres":["pop"],"source":"SONY MUSIC","images":{"poster":{"url":"https://charaku.imgix.net/assets/81114/Zhou_Jie_Lun_-_Ting_Jian_Xia_Yu_De_Sheng_Yin.jpeg?auto=compress"}},"lyrics_count":1,"block":true,"original_lyric_url":null,"has_lrc":false,"music_feature_key":null,"music_feature_is_major":null,"block_reason":{"country_blocked":false,"platform_blocked":true,"time_lapsed_blocked":false},"track_artists":[{"type":"main","artist":{"id":2072,"name":"周杰倫","alt_name":"Zhou Jie Lun; Jay Chou","gender":"m","lang_codes":["zh"],"images":{"poster":{"url":"https://charaku.imgix.net/assets/MjmqNKN_o5ByHE_OYN20qg_Jay_Chou.png?auto=compress"}},"total_tracks":261}}]},{"id":133178,"number":null,"title":"Look What You Made Me Do","alt_title":"","lang_code":"en","runtime":256,"release_date":"2017-08-25","has_video":true,"genres":["pop","pop"],"source":null,"images":{"poster":{"url":"https://charaku.imgix.net/assets/133178/Taylor-Swift-reputation-ART-2017-billboard-1240.jpg?auto=compress"}},"lyrics_count":1,"block":true,"original_lyric_url":null,"has_lrc":false,"music_feature_key":null,"music_feature_is_major":null,"block_reason":{"country_blocked":false,"platform_blocked":true,"time_lapsed_blocked":false},"track_artists":[{"type":"main","artist":{"id":899,"name":"Taylor Swift","alt_name":"Taylor Alison Swift","gender":"f","lang_codes":["en"],"images":{"poster":{"url":"https://charaku.imgix.net/assets/iGwPuLLksXLPpReOfruUNw_Taylor_Swift.jpg?auto=compress"}},"total_tracks":171}}]},{"id":16934,"number":null,"title":"可惜沒如果 ","alt_title":"Ke Xi Mei Ru Guo; KXMRG","lang_code":"zh","runtime":299,"release_date":"2014-12-19","has_video":true,"genres":["pop"],"source":"WARNER MUSIC","images":{"poster":{"url":"https://charaku.imgix.net/assets/OyXNDx_CeXgKBsCA8ELezQ_Lin_Jun_Jie_-_Ke_Xi_Mei_Ru_Guo.jpeg?auto=compress"}},"lyrics_count":1,"block":true,"original_lyric_url":null,"has_lrc":false,"music_feature_key":null,"music_feature_is_major":null,"block_reason":{"country_blocked":false,"platform_blocked":true,"time_lapsed_blocked":false},"track_artists":[{"type":"main","artist":{"id":2077,"name":"林俊傑","alt_name":"Lin Jun Jie; JJ Lin","gender":"m","lang_codes":["zh"],"images":{"poster":{"url":"https://charaku.imgix.net/assets/RZkDYaNlIWvKgOfTCC717w_Lin_Jun_Jie.jpg?auto=compress"}},"total_tracks":160}}]},{"id":77989,"number":null,"title":"那些你很冒險的夢","alt_title":"Na Xie Ni Hen Mao Xian De Meng","lang_code":"zh","runtime":256,"release_date":"2011-12-31","has_video":true,"genres":["pop"],"source":"WARNER MUSIC","images":{"poster":{"url":"https://charaku.imgix.net/assets/jTH-qywCPmmlACNfRETwJg_Lin_Jun_Jie_-_Na_Xie_Ni_Hen_Mao_Xian_De_Meng.jpg?auto=compress"}},"lyrics_count":1,"block":true,"original_lyric_url":null,"has_lrc":false,"music_feature_key":null,"music_feature_is_major":null,"block_reason":{"country_blocked":false,"platform_blocked":true,"time_lapsed_blocked":false},"track_artists":[{"type":"main","artist":{"id":2077,"name":"林俊傑","alt_name":"Lin Jun Jie; JJ Lin","gender":"m","lang_codes":["zh"],"images":{"poster":{"url":"https://charaku.imgix.net/assets/RZkDYaNlIWvKgOfTCC717w_Lin_Jun_Jie.jpg?auto=compress"}},"total_tracks":160}}]},{"id":49696,"number":null,"title":"你，好不好？ ","alt_title":"Ni Hao Bu Hao","lang_code":"zh","runtime":291,"release_date":"2016-05-20","has_video":true,"genres":["pop","soundtrack"],"source":"SONY MUSIC","images":{"poster":{"url":"https://charaku.imgix.net/assets/49696/Zhou_Xing_Zhe_-_Ni_Hao_Bu_Hao.jpg?auto=compress"}},"lyrics_count":0,"block":true,"original_lyric_url":null,"has_lrc":false,"music_feature_key":null,"music_feature_is_major":null,"block_reason":{"country_blocked":false,"platform_blocked":true,"time_lapsed_blocked":false},"track_artists":[{"type":"main","artist":{"id":3309,"name":"周興哲","alt_name":"Zhou Xing Zhe; Eric Chou","gender":"m","lang_codes":["zh"],"images":{"poster":{"url":"https://charaku.imgix.net/assets/3309/Eric_Chou.jpg?auto=compress"}},"total_tracks":36}}]},{"id":135237,"number":null,"title":"Rewrite The Stars","alt_title":"","lang_code":"en","runtime":223,"release_date":"2017-11-17","has_video":true,"genres":["pop"],"source":null,"images":{"poster":{"url":"https://charaku.imgix.net/assets/ovvasGMHh2cj8dxegZAgnQ_650x650.jpg?auto=compress"}},"lyrics_count":1,"block":true,"original_lyric_url":null,"has_lrc":false,"music_feature_key":null,"music_feature_is_major":null,"block_reason":{"country_blocked":false,"platform_blocked":true,"time_lapsed_blocked":false},"track_artists":[{"type":"main","artist":{"id":17909,"name":"Zac Efron","alt_name":"Zachary David Alexander  Efron","gender":"m","lang_codes":["en"],"images":{"poster":{"url":"https://charaku.imgix.net/assets/6-4Wl_C5iCxxLZoc9TvjVA_Zac_Efron.jpg?auto=compress"}},"total_tracks":6}},{"type":"main","artist":{"id":29082,"name":"Zendaya","alt_name":"Zendaya Maree Stoermer Coleman","gender":"f","lang_codes":["en"],"images":{"poster":{"url":"https://charaku.imgix.net/assets/-nGNq0dKRZAaZgrXRwngRw_Zendaya.webp?auto=compress"}},"total_tracks":2}}]},{"id":52875,"number":null,"title":"你好不好 ","alt_title":"Ni Hao Bu Hao; NHBH","lang_code":"zh","runtime":289,"release_date":"2016-05-20","has_video":true,"genres":["r&b","soundtrack"],"source":"SONY MUSIC","images":{"poster":{"url":"https://charaku.imgix.net/assets/ttHyzZh3S9Nulb5JhDVXKg_周興哲_你好不好.jpg?auto=compress"}},"lyrics_count":1,"block":true,"original_lyric_url":"","has_lrc":false,"music_feature_key":null,"music_feature_is_major":null,"block_reason":{"country_blocked":false,"platform_blocked":true,"time_lapsed_blocked":false},"track_artists":[{"type":"main","artist":{"id":3309,"name":"周興哲","alt_name":"Zhou Xing Zhe; Eric Chou","gender":"m","lang_codes":["zh"],"images":{"poster":{"url":"https://charaku.imgix.net/assets/3309/Eric_Chou.jpg?auto=compress"}},"total_tracks":36}}]},{"id":128636,"number":null,"title":"凉凉 (三生三世十里桃花 片尾曲)","alt_title":"Liang Liang (San Sheng San Shi Shi Li Tao Hua Pian Wei Qu)","lang_code":"zh","runtime":323,"release_date":"2017-02-18","has_video":true,"genres":["pop","r&b","soundtrack"],"source":null,"images":{"poster":{"url":"https://charaku.imgix.net/assets/ttjDNMe48rEiE8FMFCf1Ug_凉凉.png?auto=compress"}},"lyrics_count":1,"block":true,"original_lyric_url":null,"has_lrc":false,"music_feature_key":null,"music_feature_is_major":null,"block_reason":{"country_blocked":false,"platform_blocked":true,"time_lapsed_blocked":false},"track_artists":[{"type":"main","artist":{"id":2857,"name":"楊宗緯","alt_name":"Yang Zong Wei; Aska Yang","gender":"m","lang_codes":["zh"],"images":{"poster":{"url":"https://charaku.imgix.net/assets/2857/Yang_Zong_Wei.jpeg?auto=compress"}},"total_tracks":71}},{"type":"main","artist":{"id":2831,"name":"張碧晨","alt_name":"Zhang Bi Chen","gender":"f","lang_codes":["zh"],"images":{"poster":{"url":"https://charaku.imgix.net/assets/2831/Zhang_Bi_Chen.jpg?auto=compress"}},"total_tracks":52}}]},{"id":129954,"number":null,"title":"凉凉 (三生三世十里桃花片尾曲)(Cover)","alt_title":"Liang Liang San Sheng San Shi Shi Li Tao Hua Pian Wei Qu","lang_code":"zh","runtime":325,"release_date":"2017-02-18","has_video":true,"genres":["pop"],"source":null,"images":{"poster":{"url":"https://charaku.imgix.net/assets/NArP2dGt3Vfy6_dv4pO_4w_Yang_Zong_Wei___Zhang_Bi_Chen_-_Liang_Liang__San_Sheng_San_Shi_Shi_Li_Tao_Hua_Pian_Wei_Qu_.jpg?auto=compress"}},"lyrics_count":1,"block":true,"original_lyric_url":"","has_lrc":false,"music_feature_key":null,"music_feature_is_major":null,"block_reason":{"country_blocked":false,"platform_blocked":true,"time_lapsed_blocked":false},"track_artists":[{"type":"main","artist":{"id":2857,"name":"楊宗緯","alt_name":"Yang Zong Wei; Aska Yang","gender":"m","lang_codes":["zh"],"images":{"poster":{"url":"https://charaku.imgix.net/assets/2857/Yang_Zong_Wei.jpeg?auto=compress"}},"total_tracks":71}},{"type":"main","artist":{"id":2831,"name":"張碧晨","alt_name":"Zhang Bi Chen","gender":"f","lang_codes":["zh"],"images":{"poster":{"url":"https://charaku.imgix.net/assets/2831/Zhang_Bi_Chen.jpg?auto=compress"}},"total_tracks":52}}]},{"id":23225,"number":null,"title":"默 ","alt_title":"Mo","lang_code":"zh","runtime":324,"release_date":"2015-04-19","has_video":true,"genres":["pop","soundtrack"],"source":"WARNER MUSIC","images":{"poster":{"url":"https://charaku.imgix.net/assets/23225/Na_Ying_-_Mo.jpg?auto=compress"}},"lyrics_count":1,"block":true,"original_lyric_url":"","has_lrc":false,"music_feature_key":null,"music_feature_is_major":null,"block_reason":{"country_blocked":false,"platform_blocked":true,"time_lapsed_blocked":false},"track_artists":[{"type":"main","artist":{"id":2365,"name":"那英","alt_name":"Na Ying","gender":"","lang_codes":["zh"],"images":{"poster":{"url":"https://charaku.imgix.net/assets/6hi3XvSrdrjBwHEqOZJRSA_Na_Ying.jpg?auto=compress"}},"total_tracks":125}}]},{"id":129862,"number":null,"title":"飘向北方","alt_title":"Piao Xiang Bei Fang Stranger in the north","lang_code":"zh","runtime":271,"release_date":"2017-03-01","has_video":true,"genres":["pop","r&b"],"source":"EQ MUSIC","images":{"poster":{"url":"https://charaku.imgix.net/assets/15e02418cef10c206ad737538cc6fd268f2588c2?auto=compress"}},"lyrics_count":0,"block":true,"original_lyric_url":null,"has_lrc":false,"music_feature_key":null,"music_feature_is_major":null,"block_reason":{"country_blocked":false,"platform_blocked":true,"time_lapsed_blocked":false},"track_artists":[{"type":"main","artist":{"id":4150,"name":"黄明志","alt_name":"Huang Ming Zhi; Namewee","gender":"","lang_codes":["zh"],"images":{"poster":{"url":"https://charaku.imgix.net/assets/r7OEXKv6vHinTpZgbyM45Q_Huang_Ming_Zhi.jpg?auto=compress"}},"total_tracks":20}},{"type":"main","artist":{"id":2442,"name":"王力宏","alt_name":"Wang Li Hong ","gender":"m","lang_codes":["zh"],"images":{"poster":{"url":"https://charaku.imgix.net/assets/RbkNaU0QdQ1tQsuIwLH7SQ_Wang_Li_Hong.jpg?auto=compress"}},"total_tracks":174}}]},{"id":128472,"number":null,"title":"爱要怎么说出口 (Cover)","alt_title":"Ai Yao Zen Me Shuo Chu Kou; AYZMSCK","lang_code":"zh","runtime":234,"release_date":"2017-01-01","has_video":true,"genres":["pop"],"source":null,"images":{"poster":{"url":"https://charaku.imgix.net/assets/JUkFXNTIvUi8QZI_WLpDcg_Lin_Jun_Jie_-_Ai_Yao_Zen_Me_Shuo_Chu_Kou.jpg?auto=compress"}},"lyrics_count":1,"block":true,"original_lyric_url":"","has_lrc":false,"music_feature_key":null,"music_feature_is_major":null,"block_reason":{"country_blocked":false,"platform_blocked":true,"time_lapsed_blocked":false},"track_artists":[{"type":"main","artist":{"id":2077,"name":"林俊傑","alt_name":"Lin Jun Jie; JJ Lin","gender":"m","lang_codes":["zh"],"images":{"poster":{"url":"https://charaku.imgix.net/assets/RZkDYaNlIWvKgOfTCC717w_Lin_Jun_Jie.jpg?auto=compress"}},"total_tracks":160}}]},{"id":131069,"number":null,"title":"Disana Cinta Disini Rindu","alt_title":"","lang_code":"ms","runtime":208,"release_date":null,"has_video":true,"genres":["pop"],"source":null,"images":{"poster":{"url":"https://charaku.imgix.net/assets/gL_p5cMvgjkKdxcSA_UZ8w_Wany.jpg?auto=compress"}},"lyrics_count":1,"block":true,"original_lyric_url":null,"has_lrc":false,"music_feature_key":null,"music_feature_is_major":null,"block_reason":{"country_blocked":false,"platform_blocked":true,"time_lapsed_blocked":false},"track_artists":[{"type":"main","artist":{"id":27548,"name":"Wany Hasrita","alt_name":"","gender":null,"lang_codes":["ms"],"images":{"poster":{"url":"https://charaku.imgix.net/assets/27548/Wany_Hasrita.jpg?auto=compress"}},"total_tracks":10}},{"type":"main","artist":{"id":12338,"name":"Tajul","alt_name":"Tajul Ariff Noor bin Md Shari","gender":"","lang_codes":["ms"],"images":{"poster":{"url":"https://charaku.imgix.net/assets/12338/Tajul.jpg?auto=compress"}},"total_tracks":7}}]},{"id":128932,"number":null,"title":"How Far I'll Go","alt_title":"Moana","lang_code":"en","runtime":158,"release_date":"2016-11-18","has_video":true,"genres":["soundtrack"],"source":null,"images":{"poster":{"url":"https://charaku.imgix.net/assets/pePSVPyQbp8uspf_0RnLAw_Auli_i_Cravalho_-_How_Far_I_ll_Go.jpg?auto=compress"}},"lyrics_count":2,"block":true,"original_lyric_url":null,"has_lrc":false,"music_feature_key":null,"music_feature_is_major":null,"block_reason":{"country_blocked":false,"platform_blocked":true,"time_lapsed_blocked":false},"track_artists":[{"type":"main","artist":{"id":26339,"name":"Auli'i Cravalho","alt_name":null,"gender":null,"lang_codes":["en"],"images":{"poster":{"url":"https://charaku.imgix.net/assets/hi0Lf2LxhmzGq8RZp4OsfA_Auli_i_Cravalho.jpg?auto=compress"}},"total_tracks":2}}]},{"id":102826,"number":null,"title":"朋友","alt_title":"Peng You","lang_code":"zh","runtime":275,"release_date":"2013-08-01","has_video":true,"genres":["pop"],"source":"ROCK RECORDS","images":{"poster":{"url":"https://charaku.imgix.net/assets/102826/Zhou_Hua_Jian__-_Peng_You.jpg?auto=compress"}},"lyrics_count":1,"block":true,"original_lyric_url":null,"has_lrc":false,"music_feature_key":null,"music_feature_is_major":null,"block_reason":{"country_blocked":false,"platform_blocked":true,"time_lapsed_blocked":false},"track_artists":[{"type":"main","artist":{"id":7790,"name":"周華健","alt_name":"Zhou Hua Jian; Wakin Chau","gender":"","lang_codes":["zh"],"images":{"poster":{"url":"https://charaku.imgix.net/assets/Sm3_BHRXWdq2PeBEzRvU4w_Zhou_Hua_Jian.png?auto=compress"}},"total_tracks":157}}]},{"id":23291,"number":null,"title":"Thinking Out Loud ","alt_title":"","lang_code":"en","runtime":287,"release_date":"2014-06-20","has_video":true,"genres":["pop"],"source":"WARNER MUSIC","images":{"poster":{"url":"https://charaku.imgix.net/assets/a8S8-YTHhoptw-NCleKzug_Ed_Sheeran_-_Thinking_Out_Loud.jpg?auto=compress"}},"lyrics_count":2,"block":true,"original_lyric_url":null,"has_lrc":false,"music_feature_key":null,"music_feature_is_major":null,"block_reason":{"country_blocked":false,"platform_blocked":true,"time_lapsed_blocked":false},"track_artists":[{"type":"main","artist":{"id":192,"name":"Ed Sheeran","alt_name":"Edward Christopher Sheeran","gender":"m","lang_codes":["en"],"images":{"poster":{"url":"https://charaku.imgix.net/assets/p-gxBIDPFut69EEgxvc_7g_Ed.png?auto=compress"}},"total_tracks":90}}]},{"id":128582,"number":null,"title":"光年之外 ","alt_title":"Guang Nian Zhi Wai","lang_code":"zh","runtime":236,"release_date":"2016-12-30","has_video":true,"genres":["pop"],"source":null,"images":{"poster":{"url":"https://charaku.imgix.net/assets/kOF4ENr0fYs8KPjL3cIG1g_Deng_Zi_Qi_-_Guang_Nian_Zhi_Wai.jpg?auto=compress"}},"lyrics_count":1,"block":true,"original_lyric_url":null,"has_lrc":false,"music_feature_key":null,"music_feature_is_major":null,"block_reason":{"country_blocked":false,"platform_blocked":true,"time_lapsed_blocked":false},"track_artists":[{"type":"main","artist":{"id":3588,"name":"鄧紫棋","alt_name":"Deng Zi Qi; G.E.M","gender":"f","lang_codes":["zh"],"images":{"poster":{"url":"https://charaku.imgix.net/assets/3588/G.E.M.jpg?auto=compress"}},"total_tracks":99}}]},{"id":17614,"number":null,"title":"Firework","alt_title":"","lang_code":"en","runtime":236,"release_date":"2010-10-26","has_video":true,"genres":["pop"],"source":"UNIVERSAL MUSIC","images":{"poster":{"url":"https://charaku.imgix.net/assets/17614/Katy_Perry_-_Firework.jpg?auto=compress"}},"lyrics_count":1,"block":true,"original_lyric_url":null,"has_lrc":false,"music_feature_key":null,"music_feature_is_major":null,"block_reason":{"country_blocked":false,"platform_blocked":true,"time_lapsed_blocked":false},"track_artists":[{"type":"main","artist":{"id":5626,"name":"Katy Perry","alt_name":"Katheryn Elizabeth Hudson","gender":"f","lang_codes":["en"],"images":{"poster":{"url":"https://charaku.imgix.net/assets/WFd4XRLYCWQ4u4ylblXGrA_Katy_Perry.jpg?auto=compress"}},"total_tracks":69}}]},{"id":13911,"number":null,"title":"喜歡你","alt_title":" Xi Huan Ni","lang_code":"yue","runtime":269,"release_date":"2014-08-15","has_video":true,"genres":["pop"],"source":null,"images":{"poster":{"url":"https://charaku.imgix.net/assets/qF_d3Rf7P1eQl7jBQw8trQ_鄧紫棋_喜歡你.jpg?auto=compress"}},"lyrics_count":1,"block":true,"original_lyric_url":null,"has_lrc":false,"music_feature_key":null,"music_feature_is_major":null,"block_reason":{"country_blocked":false,"platform_blocked":true,"time_lapsed_blocked":false},"track_artists":[{"type":"main","artist":{"id":3588,"name":"鄧紫棋","alt_name":"Deng Zi Qi; G.E.M","gender":"f","lang_codes":["zh"],"images":{"poster":{"url":"https://charaku.imgix.net/assets/3588/G.E.M.jpg?auto=compress"}},"total_tracks":99}}]},{"id":130576,"number":null,"title":"Symphony","alt_title":"","lang_code":"en","runtime":246,"release_date":null,"has_video":true,"genres":["pop"],"source":"SONY MUSIC","images":{"poster":{"url":"https://charaku.imgix.net/assets/d8b6614b2e142508ff5c7b1d376f4b9dfecfb72c?auto=compress"}},"lyrics_count":1,"block":true,"original_lyric_url":null,"has_lrc":false,"music_feature_key":null,"music_feature_is_major":null,"block_reason":{"country_blocked":false,"platform_blocked":true,"time_lapsed_blocked":false},"track_artists":[{"type":"main","artist":{"id":1036,"name":"Zara Larsson","alt_name":"","gender":"f","lang_codes":["en"],"images":{"poster":{"url":"https://charaku.imgix.net/assets/1036/Zara_Larsson.jpg?auto=compress"}},"total_tracks":22}},{"type":"main","artist":{"id":142,"name":"Clean Bandit","alt_name":"","gender":"m","lang_codes":["en"],"images":{"poster":{"url":"https://charaku.imgix.net/assets/iTkQ-oIU4Pm2CuJEs2CeZA_Clean_Bandit.png?auto=compress"}},"total_tracks":19}}]},{"id":79846,"number":null,"title":"那些年","alt_title":"Na Xie Nian; NXN","lang_code":"zh","runtime":369,"release_date":"2012-02-24","has_video":true,"genres":["pop","soundtrack"],"source":"SONY MUSIC","images":{"poster":{"url":"https://charaku.imgix.net/assets/79846/Hu_Xia_-_Na_Xie_Nian.jpg?auto=compress"}},"lyrics_count":1,"block":true,"original_lyric_url":null,"has_lrc":false,"music_feature_key":null,"music_feature_is_major":null,"block_reason":{"country_blocked":false,"platform_blocked":true,"time_lapsed_blocked":false},"track_artists":[{"type":"main","artist":{"id":2447,"name":"胡夏","alt_name":"Hu Xia","gender":"m","lang_codes":["zh"],"images":{"poster":{"url":"https://charaku.imgix.net/assets/H9YzbPOQEVUsfmHnNjGpsA_Hu_Xia.jpg?auto=compress"}},"total_tracks":57}}]},{"id":7542,"number":null,"title":"Sudah Ku Tahu","alt_title":"","lang_code":"ms","runtime":261,"release_date":"2016-02-16","has_video":true,"genres":["pop","rock","rock"],"source":"","images":{"poster":{"url":"https://charaku.imgix.net/assets/7542/Projector_Band_-_Sudah_Ku_Tahu.jpg?auto=compress"}},"lyrics_count":1,"block":true,"original_lyric_url":null,"has_lrc":false,"music_feature_key":null,"music_feature_is_major":null,"block_reason":{"country_blocked":false,"platform_blocked":true,"time_lapsed_blocked":false},"track_artists":[{"type":"main","artist":{"id":2113,"name":"Projector Band","alt_name":"","gender":"m","lang_codes":["ms"],"images":{"poster":{"url":"https://charaku.imgix.net/assets/4TDtRiDrzAZYleKpeulaUg_Projector_Band.jpg?auto=compress"}},"total_tracks":5}}]},{"id":130000,"number":null,"title":"That's What I Like","alt_title":"","lang_code":"en","runtime":211,"release_date":"2017-01-30","has_video":true,"genres":["pop"],"source":"WARNER MUSIC","images":{"poster":{"url":"https://charaku.imgix.net/assets/IlLwv47U9I6cLBIl7Us-CA_Bruno_Mars_-_That_s_What__I_Like.jpg?auto=compress"}},"lyrics_count":1,"block":true,"original_lyric_url":null,"has_lrc":false,"music_feature_key":null,"music_feature_is_major":null,"block_reason":{"country_blocked":false,"platform_blocked":true,"time_lapsed_blocked":false},"track_artists":[{"type":"main","artist":{"id":111,"name":"Bruno Mars","alt_name":"Peter Gene Hernandez","gender":"m","lang_codes":["en"],"images":{"poster":{"url":"https://charaku.imgix.net/assets/d1To6yB6Y3SWOqwDzbZTjQ_Bruno_Mars.jpg?auto=compress"}},"total_tracks":81}}]},{"id":25626,"number":null,"title":"Rockabye","alt_title":"","lang_code":"en","runtime":263,"release_date":"2016-10-21","has_video":true,"genres":["pop","edm"],"source":"WARNER MUSIC","images":{"poster":{"url":"https://charaku.imgix.net/assets/25626/Clean_Bandit_-_Rockabye.jpg?auto=compress"}},"lyrics_count":1,"block":true,"original_lyric_url":null,"has_lrc":false,"music_feature_key":null,"music_feature_is_major":null,"block_reason":{"country_blocked":false,"platform_blocked":true,"time_lapsed_blocked":false},"track_artists":[{"type":"main","artist":{"id":832,"name":"Sean Paul","alt_name":null,"gender":"m","lang_codes":["en"],"images":{"poster":{"url":"https://charaku.imgix.net/assets/gMYTzmwkRcZ8ED4zkPyHow_Sean_Paul.jpg?auto=compress"}},"total_tracks":32}},{"type":"main","artist":{"id":142,"name":"Clean Bandit","alt_name":"","gender":"m","lang_codes":["en"],"images":{"poster":{"url":"https://charaku.imgix.net/assets/iTkQ-oIU4Pm2CuJEs2CeZA_Clean_Bandit.png?auto=compress"}},"total_tracks":19}},{"type":"main","artist":{"id":26681,"name":"Anne-Marie","alt_name":"Anne Marie","gender":"","lang_codes":["en"],"images":{"poster":{"url":"https://charaku.imgix.net/assets/26681/Anne_Marie.jpg?auto=compress"}},"total_tracks":6}}]}],"meta":{"total":168760,"current_page":2,"num_pages":6751,"per_page":25,"previous":"https://api-staging.popsical.tv/v3/songs.json?page=1&per_page=25","next":"https://api-staging.popsical.tv/v3/songs.json?page=3&per_page=25"}}
