{"tracks":[{"id":20051,"number":null,"title":"小幸運","alt_title":"Xiao Xing Yun","lang_code":"zh","runtime":289,"release_date":"2015-07-10","has_video":true,"genres":["pop","soundtrack"],"source":"HIM MUSIC","images":{"poster":{"url":"https://charaku.imgix.net/assets/sKgnaRYlnmGO-n003WjisA_xiao_xing_yun.jpg?auto=compress"}},"lyrics_count":1,"block":true,"original_lyric_url":"","has_lrc":false,"music_feature_key":null,"music_feature_is_major":null,"block_reason":{"country_blocked":false,"platform_blocked":true,"time_lapsed_blocked":false},"track_artists":[{"type":"main","artist":{"id":2318,"name":"田馥甄","alt_name":"Tian Fu Zhen; Hebe Tien","gender":"f","lang_codes":["zh"],"images":{"poster":{"url":"https://charaku.imgix.net/assets/2318/Tian_Fu_Zhen.jpg?auto=compress"}},"total_tracks":68}}]},{"id":24578,"number":null,"title":"告白氣球 ","alt_title":"Gao Bai Qi Qiu； GBQQ","lang_code":"zh","runtime":213,"release_date":"2016-06-24","has_video":true,"genres":["pop"],"source":"SONY MUSIC","images":{"poster":{"url":"https://charaku.imgix.net/assets/qXXX3Y4pvIizgmHkMp5sAg_Jay_Chou_-_Gao_Bai_Qi_Qiu.jpg?auto=compress"}},"lyrics_count":1,"block":true,"original_lyric_url":null,"has_lrc":false,"music_feature_key":null,"music_feature_is_major":null,"block_reason":{"country_blocked":false,"platform_blocked":true,"time_lapsed_blocked":false},"track_artists":[{"type":"main","artist":{"id":2072,"name":"周杰倫","alt_name":"Zhou Jie Lun; Jay Chou","gender":"m","lang_codes":["zh"],"images":{"poster":{"url":"https://charaku.imgix.net/assets/MjmqNKN_o5ByHE_OYN20qg_Jay_Chou.png?auto=compress"}},"total_tracks":261}}]},{"id":128857,"number":null,"title":"Shape of You (Lyric)","alt_title":"","lang_code":"en","runtime":239,"release_date":null,"has_video":true,"genres":["pop"],"source":"WARNER MUSIC","images":{"poster":{"url":"https://charaku.imgix.net/assets/92f0a248f93f5113dcead2f62c1ff24d.1000x1000x1.jpg?auto=compress"}},"lyrics_count":1,"block":true,"original_lyric_url":null,"has_lrc":false,"music_feature_key":null,"music_feature_is_major":null,"block_reason":{"country_blocked":false,"platform_blocked":true,"time_lapsed_blocked":false},"track_artists":[{"type":"main","artist":{"id":192,"name":"Ed Sheeran","alt_name":"Edward Christopher Sheeran","gender":"m","lang_codes":["en"],"images":{"poster":{"url":"https://charaku.imgix.net/assets/p-gxBIDPFut69EEgxvc_7g_Ed.png?auto=compress"}},"total_tracks":90}}]},{"id":132848,"number":null,"title":"Perfect","alt_title":"","lang_code":"en","runtime":281,"release_date":"2017-11-30","has_video":true,"genres":["pop"],"source":null,"images":{"poster":{"url":"https://charaku.imgix.net/assets/SrJ2jXQLxCaH_KjcfYPglQ_Devide.jpg?auto=compress"}},"lyrics_count":1,"block":true,"original_lyric_url":null,"has_lrc":false,"music_feature_key":8,"music_feature_is_major":1,"block_reason":{"country_blocked":false,"platform_blocked":true,"time_lapsed_blocked":false},"track_artists":[{"type":"main","artist":{"id":192,"name":"Ed Sheeran","alt_name":"Edward Christopher Sheeran","gender":"m","lang_codes":["en"],"images":{"poster":{"url":"https://charaku.imgix.net/assets/p-gxBIDPFut69EEgxvc_7g_Ed.png?auto=compress"}},"total_tracks":90}}]},{"id":52867,"number":null,"title":"演員 ","alt_title":"Yan Yuan; YY","lang_code":"zh","runtime":299,"release_date":"2015-05-20","has_video":true,"genres":["pop","r&b"],"source":"OCEAN BUTTERFLIES","images":{"poster":{"url":"https://charaku.imgix.net/assets/52867/Xue_Zhi_Qian_-_Yan_Yuan.jpg?auto=compress"}},"lyrics_count":1,"block":true,"original_lyric_url":null,"has_lrc":false,"music_feature_key":null,"music_feature_is_major":null,"block_reason":{"country_blocked":false,"platform_blocked":true,"time_lapsed_blocked":false},"track_artists":[{"type":"main","artist":{"id":2928,"name":" 薛之謙 ","alt_name":"Xue Zhi Qian; Joker Xue","gender":"m","lang_codes":["zh"],"images":{"poster":{"url":"https://charaku.imgix.net/assets/J1zJPR62boCaCbQUGPCfAg_Xue_Zhi_Qian.jpeg?auto=compress"}},"total_tracks":0}}]},{"id":131060,"number":null,"title":"Jampi","alt_title":"","lang_code":"ms","runtime":219,"release_date":"2017-02-17","has_video":true,"genres":["pop"],"source":null,"images":{"poster":{"url":"https://charaku.imgix.net/assets/d953bdf31a40440f9b77950b5734e7e703d5f050?auto=compress"}},"lyrics_count":1,"block":true,"original_lyric_url":null,"has_lrc":false,"music_feature_key":null,"music_feature_is_major":null,"block_reason":{"country_blocked":false,"platform_blocked":true,"time_lapsed_blocked":false},"track_artists":[{"type":"main","artist":{"id":27398,"name":"Hael Husaini","alt_name":"","gender":"m","lang_codes":["ms"],"images":{"poster":{"url":"https://charaku.imgix.net/assets/27398/Hal_Husaini.jpg?auto=compress"}},"total_tracks":1}}]},{"id":130068,"number":null,"title":"Despacito","alt_title":"","lang_code":"es","runtime":276,"release_date":"2017-04-07","has_video":true,"genres":["pop"],"source":"UNIVERSAL MUSIC","images":{"poster":{"url":"https://charaku.imgix.net/assets/zjXzrhKzrrFzN8CkxoUsAw_Despacito_by_Luis_Fonsi.jpeg?auto=compress"}},"lyrics_count":1,"block":true,"original_lyric_url":null,"has_lrc":false,"music_feature_key":2,"music_feature_is_major":1,"block_reason":{"country_blocked":false,"platform_blocked":true,"time_lapsed_blocked":false},"track_artists":[{"type":"main","artist":{"id":21599,"name":"Daddy Yankee","alt_name":"","gender":"","lang_codes":["en"],"images":{"poster":{"url":"https://charaku.imgix.net/assets/KuZbASOYTdhJSfcKqWBV-w_Daddy_Yankee.jpg?auto=compress"}},"total_tracks":8}},{"type":"main","artist":{"id":27027,"name":"Luis Fonsi","alt_name":"","gender":"","lang_codes":["en"],"images":{"poster":{"url":"https://charaku.imgix.net/assets/LhrpZQB3Rg6D6L9XKGmH0Q_Luis_Fonsi.jpg?auto=compress"}},"total_tracks":3}}]},{"id":131563,"number":null,"title":"Menahan Rindu ","alt_title":"","lang_code":"ms","runtime":228,"release_date":"2016-11-18","has_video":true,"genres":["pop"],"source":null,"images":{"poster":{"url":"https://charaku.imgix.net/defaults/default_tracks/track_6.jpg?auto=compress,enhance"}},"lyrics_count":1,"block":true,"original_lyric_url":null,"has_lrc":false,"music_feature_key":null,"music_feature_is_major":null,"block_reason":{"country_blocked":false,"platform_blocked":true,"time_lapsed_blocked":false},"track_artists":[{"type":"main","artist":{"id":27548,"name":"Wany Hasrita","alt_name":"","gender":null,"lang_codes":["ms"],"images":{"poster":{"url":"https://charaku.imgix.net/assets/27548/Wany_Hasrita.jpg?auto=compress"}},"total_tracks":10}},{"type":"main","artist":{"id":480,"name":"Justin Bieber","alt_name":"Justin Drew Bieber","gender":"m","lang_codes":["en"],"images":{"poster":{"url":"https://charaku.imgix.net/assets/b06zKLirQDeDKA6hGprR_w_Justin_Bieber.jpg?auto=compress"}},"total_tracks":115}},{"type":"featured","artist":{"id":27826,"name":"싸이","alt_name":"PSY; Park Jae-sang","gender":"","lang_codes":["ko"],"images":{"poster":{"url":"https://charaku.imgix.net/assets/7yJJRkamCsb2Mr3kIzo80A_PSY.jpg?auto=compress"}},"total_tracks":5}}]},{"id":131154,"number":null,"title":"漂向北方 ","alt_title":"Piao Xiang Bei Fang；PXBF; 飄向北方","lang_code":"zh","runtime":280,"release_date":"2017-03-04","has_video":true,"genres":["pop","rap"],"source":null,"images":{"poster":{"url":"https://charaku.imgix.net/assets/131154/Huang_Ming_Zhi_-_Piao_Xiang_Bei_Fang.jpg?auto=compress"}},"lyrics_count":1,"block":true,"original_lyric_url":null,"has_lrc":false,"music_feature_key":null,"music_feature_is_major":null,"block_reason":{"country_blocked":false,"platform_blocked":true,"time_lapsed_blocked":false},"track_artists":[{"type":"main","artist":{"id":27638,"name":"黃明志","alt_name":"Huang Ming Zhi; Namewee","gender":"m","lang_codes":["zh"],"images":{"poster":{"url":"https://charaku.imgix.net/assets/JWakTkswm6lNB8z9310xOw_Huang_Ming_Zhi.jpg?auto=compress"}},"total_tracks":23}},{"type":"main","artist":{"id":2442,"name":"王力宏","alt_name":"Wang Li Hong ","gender":"m","lang_codes":["zh"],"images":{"poster":{"url":"https://charaku.imgix.net/assets/RbkNaU0QdQ1tQsuIwLH7SQ_Wang_Li_Hong.jpg?auto=compress"}},"total_tracks":174}}]},{"id":16344,"number":null,"title":"以後別做朋友 ","alt_title":"Yi Hou Bie Zuo Peng You; YHBZPY","lang_code":"zh","runtime":265,"release_date":null,"has_video":true,"genres":["r&b","soundtrack"],"source":"SONY MUSIC","images":{"poster":{"url":"https://charaku.imgix.net/assets/Rf7GVr1pnZZ3nTMgNM9TqA_周興哲_以後別做朋友.jpg?auto=compress"}},"lyrics_count":1,"block":true,"original_lyric_url":"","has_lrc":false,"music_feature_key":null,"music_feature_is_major":null,"block_reason":{"country_blocked":false,"platform_blocked":true,"time_lapsed_blocked":false},"track_artists":[{"type":"main","artist":{"id":3309,"name":"周興哲","alt_name":"Zhou Xing Zhe; Eric Chou","gender":"m","lang_codes":["zh"],"images":{"poster":{"url":"https://charaku.imgix.net/assets/3309/Eric_Chou.jpg?auto=compress"}},"total_tracks":36}}]},{"id":23687,"number":null,"title":"Let It Go","alt_title":"frozen Let It Go","lang_code":"en","runtime":218,"release_date":null,"has_video":true,"genres":["pop","soundtrack"],"source":null,"images":{"poster":{"url":"https://charaku.imgix.net/assets/11660886813_344f3a7bd4_o.png?auto=compress"}},"lyrics_count":1,"block":true,"original_lyric_url":"","has_lrc":false,"music_feature_key":null,"music_feature_is_major":null,"block_reason":{"country_blocked":false,"platform_blocked":true,"time_lapsed_blocked":false},"track_artists":[{"type":"main","artist":{"id":293,"name":"Idina Menzel","alt_name":"Idina Kim Menzel","gender":"f","lang_codes":["en"],"images":{"poster":{"url":"https://charaku.imgix.net/assets/i2Z4MT9h2Lrwoj4UNLz6WQ_Idina_Menzel.png?auto=compress"}},"total_tracks":6}}]},{"id":48128,"number":null,"title":"不為誰而作的歌 ","alt_title":"Bu Wei Shui Er Zuo De Ge","lang_code":"zh","runtime":319,"release_date":"2015-12-25","has_video":true,"genres":["pop"],"source":"WARNER MUSIC","images":{"poster":{"url":"https://charaku.imgix.net/assets/N52hhZI5QpRmqMR54TjuPA_Lin_Jun_Jie_-_Bu_Wei_Shui_Er_Zuo_De_Ge.png?auto=compress"}},"lyrics_count":1,"block":true,"original_lyric_url":"","has_lrc":false,"music_feature_key":null,"music_feature_is_major":null,"block_reason":{"country_blocked":false,"platform_blocked":true,"time_lapsed_blocked":false},"track_artists":[{"type":"main","artist":{"id":2077,"name":"林俊傑","alt_name":"Lin Jun Jie; JJ Lin","gender":"m","lang_codes":["zh"],"images":{"poster":{"url":"https://charaku.imgix.net/assets/RZkDYaNlIWvKgOfTCC717w_Lin_Jun_Jie.jpg?auto=compress"}},"total_tracks":160}}]},{"id":131798,"number":null,"title":"Despacito","alt_title":"","lang_code":"en","runtime":230,"release_date":"2018-02-06","has_video":true,"genres":["pop"],"source":null,"images":{"poster":{"url":"https://charaku.imgix.net/assets/TDDnxzWDmfuHt4rTwh76SQ_rawImage.jpg?auto=compress"}},"lyrics_count":1,"block":true,"original_lyric_url":null,"has_lrc":false,"music_feature_key":null,"music_feature_is_major":null,"block_reason":{"country_blocked":false,"platform_blocked":true,"time_lapsed_blocked":false},"track_artists":[{"type":"main","artist":{"id":480,"name":"Justin Bieber","alt_name":"Justin Drew Bieber","gender":"m","lang_codes":["en"],"images":{"poster":{"url":"https://charaku.imgix.net/assets/b06zKLirQDeDKA6hGprR_w_Justin_Bieber.jpg?auto=compress"}},"total_tracks":115}},{"type":"main","artist":{"id":21599,"name":"Daddy Yankee","alt_name":"","gender":"","lang_codes":["en"],"images":{"poster":{"url":"https://charaku.imgix.net/assets/KuZbASOYTdhJSfcKqWBV-w_Daddy_Yankee.jpg?auto=compress"}},"total_tracks":8}},{"type":"main","artist":{"id":27027,"name":"Luis Fonsi","alt_name":"","gender":"","lang_codes":["en"],"images":{"poster":{"url":"https://charaku.imgix.net/assets/LhrpZQB3Rg6D6L9XKGmH0Q_Luis_Fonsi.jpg?auto=compress"}},"total_tracks":3}}]},{"id":128481,"number":null,"title":"演员 (Cover)","alt_title":"Yan Yuan (Cover)","lang_code":"zh","runtime":280,"release_date":null,"has_video":true,"genres":["pop"],"source":null,"images":{"poster":{"url":"https://charaku.imgix.net/assets/Euw0mHilAy5Sw8AMGFEC-A_yan_yuan.jpg?auto=compress"}},"lyrics_count":1,"block":true,"original_lyric_url":"https://sg-assets-sta.s3-ap-southeast-1.amazonaws.com/assets%2FsU_Mgj4eovp80XJog8PI8w_%E7%94%B0%E9%A6%A5%E7%94%84_%E6%BC%94%E5%91%982.lrc","has_lrc":true,"music_feature_key":null,"music_feature_is_major":null,"block_reason":{"country_blocked":false,"platform_blocked":true,"time_lapsed_blocked":false},"track_artists":[{"type":"main","artist":{"id":2318,"name":"田馥甄","alt_name":"Tian Fu Zhen; Hebe Tien","gender":"f","lang_codes":["zh"],"images":{"poster":{"url":"https://charaku.imgix.net/assets/2318/Tian_Fu_Zhen.jpg?auto=compress"}},"total_tracks":68}}]},{"id":131061,"number":null,"title":"Aku Sanggup","alt_title":"","lang_code":"ms","runtime":245,"release_date":"2016-12-16","has_video":true,"genres":["r&b"],"source":"UNIVERSAL MUSIC","images":{"poster":{"url":"https://charaku.imgix.net/assets/ibDlo1YF5FrbFycw2X3h1A_Sufi_rashid.jpg?auto=compress"}},"lyrics_count":1,"block":true,"original_lyric_url":null,"has_lrc":false,"music_feature_key":null,"music_feature_is_major":null,"block_reason":{"country_blocked":false,"platform_blocked":true,"time_lapsed_blocked":false},"track_artists":[{"type":"main","artist":{"id":27399,"name":"Sufi Rashid","alt_name":"","gender":null,"lang_codes":["ms"],"images":{"poster":{"url":"https://charaku.imgix.net/assets/Sk_SFozpqIcahT3Fd78I2Q_Sufi_Rashid.jpg?auto=compress"}},"total_tracks":4}}]},{"id":135055,"number":null,"title":"Too Good At Goodbye","alt_title":"","lang_code":"en","runtime":265,"release_date":"2018-09-24","has_video":true,"genres":["pop"],"source":null,"images":{"poster":{"url":"https://charaku.imgix.net/assets/g0ZHtTtyGMc1Ac2PAi1uVg_Sam_Smith_-_Too_Good_At_Goodbye.jpg?auto=compress"}},"lyrics_count":1,"block":true,"original_lyric_url":null,"has_lrc":false,"music_feature_key":null,"music_feature_is_major":null,"block_reason":{"country_blocked":false,"platform_blocked":true,"time_lapsed_blocked":false},"track_artists":[{"type":"main","artist":{"id":821,"name":"Sam Smith","alt_name":"Samuel Frederick Smith","gender":"m","lang_codes":["en"],"images":{"poster":{"url":"https://charaku.imgix.net/assets/tQx13K82vkPLbr4R1jIz8Q_Sam_Smith.png?auto=compress"}},"total_tracks":43}}]},{"id":135118,"number":null,"title":"我们不一样 ","alt_title":"Wo Men Bu Yi Yang; WMBYY","lang_code":"zh","runtime":273,"release_date":"2017-06-06","has_video":true,"genres":["pop"],"source":null,"images":{"poster":{"url":"https://charaku.imgix.net/assets/pt-u3QL23rg6HzfkHLM1Lg_大壮.jpg?auto=compress"}},"lyrics_count":1,"block":true,"original_lyric_url":"","has_lrc":false,"music_feature_key":null,"music_feature_is_major":null,"block_reason":{"country_blocked":false,"platform_blocked":true,"time_lapsed_blocked":false},"track_artists":[{"type":"main","artist":{"id":28955,"name":"大壯","alt_name":"Da Zhuang","gender":"m","lang_codes":["zh"],"images":{"poster":{"url":"https://charaku.imgix.net/assets/tsQFKY9gROxZApseghKuQw_Da_Zhuang.jpg?auto=compress"}},"total_tracks":1}}]},{"id":113608,"number":null,"title":"不該 ","alt_title":"Bu Gai; BG","lang_code":"zh","runtime":291,"release_date":"2016-06-24","has_video":true,"genres":["pop"],"source":null,"images":{"poster":{"url":"https://charaku.imgix.net/assets/113608/Zhou_Jie_Lun_-_Bu_Gai.jpg?auto=compress"}},"lyrics_count":1,"block":true,"original_lyric_url":"","has_lrc":false,"music_feature_key":null,"music_feature_is_major":null,"block_reason":{"country_blocked":false,"platform_blocked":true,"time_lapsed_blocked":false},"track_artists":[{"type":"main","artist":{"id":2072,"name":"周杰倫","alt_name":"Zhou Jie Lun; Jay Chou","gender":"m","lang_codes":["zh"],"images":{"poster":{"url":"https://charaku.imgix.net/assets/MjmqNKN_o5ByHE_OYN20qg_Jay_Chou.png?auto=compress"}},"total_tracks":261}},{"type":"main","artist":{"id":2832,"name":"張惠妹","alt_name":"Zhang Hui Mei; A-mei","gender":"","lang_codes":["zh","ho"],"images":{"poster":{"url":"https://charaku.imgix.net/assets/gEH9GEbe-Z5SeXMu7WC3EA_張惠妹.jpg?auto=compress"}},"total_tracks":378}}]},{"id":135066,"number":null,"title":"Havana ","alt_title":"","lang_code":"en","runtime":403,"release_date":null,"has_video":true,"genres":["pop"],"source":null,"images":{"poster":{"url":"https://charaku.imgix.net/assets/Bg3eOqh2tocTw-FEqNjlRw_5c2187170c83651bacd3424b69089407.1000x1000x1.jpg?auto=compress"}},"lyrics_count":1,"block":true,"original_lyric_url":null,"has_lrc":false,"music_feature_key":null,"music_feature_is_major":null,"block_reason":{"country_blocked":false,"platform_blocked":true,"time_lapsed_blocked":false},"track_artists":[{"type":"main","artist":{"id":26757,"name":"Camila Cabello","alt_name":"Karla Camila Cabello Estrabao","gender":"f","lang_codes":["en"],"images":{"poster":{"url":"https://charaku.imgix.net/assets/YcGJYC0npcfBDjedJ3G7Qw_Camila_Cabello.jpg?auto=compress"}},"total_tracks":13}},{"type":"featured","artist":{"id":15010,"name":"Young Thug","alt_name":"","gender":"","lang_codes":["en"],"images":{"poster":{"url":"https://charaku.imgix.net/assets/15010/Young_Thug.jpg?auto=compress"}},"total_tracks":21}}]},{"id":129657,"number":null,"title":"刚好遇见你 ","alt_title":"Gang Hao Yu Jian Ni; GHYJN","lang_code":"zh","runtime":200,"release_date":"2016-11-14","has_video":true,"genres":["pop"],"source":null,"images":{"poster":{"url":"https://charaku.imgix.net/assets/eb6e4d864c8c1614462c3cdb7052f860f1f7613f?auto=compress"}},"lyrics_count":1,"block":true,"original_lyric_url":"","has_lrc":false,"music_feature_key":null,"music_feature_is_major":null,"block_reason":{"country_blocked":false,"platform_blocked":true,"time_lapsed_blocked":false},"track_artists":[{"type":"main","artist":{"id":26845,"name":"李玉剛","alt_name":"Li Yu Gang","gender":"","lang_codes":["zh"],"images":{"poster":{"url":"https://charaku.imgix.net/assets/fwYjN05AE-dkgmfWfeHyuQ_Li_Yu_Gang.png?auto=compress"}},"total_tracks":1}}]},{"id":113619,"number":null,"title":"童話","alt_title":"Tong Hua","lang_code":"zh","runtime":380,"release_date":"2005-01-21","has_video":true,"genres":["pop"],"source":"ROCK RECORDS","images":{"poster":{"url":"https://charaku.imgix.net/assets/rOr3XAZyxRPErFL1sgAAxw_Guang_Liang_-_Tong_Hua.jpg?auto=compress"}},"lyrics_count":1,"block":true,"original_lyric_url":null,"has_lrc":false,"music_feature_key":null,"music_feature_is_major":null,"block_reason":{"country_blocked":false,"platform_blocked":true,"time_lapsed_blocked":false},"track_artists":[{"type":"main","artist":{"id":2820,"name":"光良","alt_name":"Guang Liang, Michael Wong","gender":"","lang_codes":["zh"],"images":{"poster":{"url":"https://charaku.imgix.net/assets/2820/Michael_Wong.jpg?auto=compress"}},"total_tracks":114}}]},{"id":103148,"number":null,"title":"聽海 ","alt_title":"Ting Hai; TH","lang_code":"zh","runtime":320,"release_date":"1997-06-07","has_video":true,"genres":["pop"],"source":"FORWARD MUSIC","images":{"poster":{"url":"https://charaku.imgix.net/assets/klwWAyVgfQ5pa5Cu1nKXpQ_ting_hai.jpg?auto=compress"}},"lyrics_count":1,"block":true,"original_lyric_url":"","has_lrc":false,"music_feature_key":null,"music_feature_is_major":null,"block_reason":{"country_blocked":false,"platform_blocked":true,"time_lapsed_blocked":false},"track_artists":[{"type":"main","artist":{"id":2832,"name":"張惠妹","alt_name":"Zhang Hui Mei; A-mei","gender":"","lang_codes":["zh","ho"],"images":{"poster":{"url":"https://charaku.imgix.net/assets/gEH9GEbe-Z5SeXMu7WC3EA_張惠妹.jpg?auto=compress"}},"total_tracks":378}}]},{"id":132084,"number":null,"title":"家家酒","alt_title":"Jia Jia Jiu; JJJ","lang_code":"zh","runtime":288,"release_date":"2016-12-30","has_video":true,"genres":["pop"],"source":null,"images":{"poster":{"url":"https://charaku.imgix.net/assets/3m7TlAk_f2OIVjCJ8fL5Xw_jiajiaplayhouselyrics.jpg?auto=compress"}},"lyrics_count":1,"block":true,"original_lyric_url":"","has_lrc":false,"music_feature_key":null,"music_feature_is_major":null,"block_reason":{"country_blocked":false,"platform_blocked":true,"time_lapsed_blocked":false},"track_artists":[{"type":"main","artist":{"id":2378,"name":"家家","alt_name":"Jia Jia","gender":"","lang_codes":["zh"],"images":{"poster":{"url":"https://charaku.imgix.net/assets/qCf_6dg5_yHxYhgcTQM3Ng_Jia_Jia.jpg?auto=compress"}},"total_tracks":27}}]},{"id":74718,"number":null,"title":"她說","alt_title":"Ta Shuo","lang_code":"zh","runtime":339,"release_date":"2010-11-16","has_video":true,"genres":["pop"],"source":"OCEAN BUTTERFLIES","images":{"poster":{"url":"https://charaku.imgix.net/assets/74718/Lin_Jun_JIe_-_Ta_Shuo.jpg?auto=compress"}},"lyrics_count":1,"block":true,"original_lyric_url":null,"has_lrc":false,"music_feature_key":null,"music_feature_is_major":null,"block_reason":{"country_blocked":false,"platform_blocked":true,"time_lapsed_blocked":false},"track_artists":[{"type":"main","artist":{"id":2077,"name":"林俊傑","alt_name":"Lin Jun Jie; JJ Lin","gender":"m","lang_codes":["zh"],"images":{"poster":{"url":"https://charaku.imgix.net/assets/RZkDYaNlIWvKgOfTCC717w_Lin_Jun_Jie.jpg?auto=compress"}},"total_tracks":160}}]},{"id":135159,"number":null,"title":"Baby Shark","alt_title":"","lang_code":"en","runtime":99,"release_date":"2017-07-27","has_video":true,"genres":["soundtrack"],"source":null,"images":{"poster":{"url":"https://charaku.imgix.net/assets/i-qfszEOAIdI4WN19R5Tcg_PinkFongAlbum.jpg?auto=compress"}},"lyrics_count":1,"block":true,"original_lyric_url":null,"has_lrc":false,"music_feature_key":null,"music_feature_is_major":null,"block_reason":{"country_blocked":false,"platform_blocked":true,"time_lapsed_blocked":false},"track_artists":[{"type":"main","artist":{"id":28966,"name":"PinkFong","alt_name":"","gender":"","lang_codes":["en"],"images":{"poster":{"url":"https://charaku.imgix.net/assets/28966/PinkFong.jpg?auto=compress"}},"total_tracks":1}}]}],"meta":{"total":168760,"current_page":1,"num_pages":6751,"per_page":25,"previous":null,"next":"https://api-staging.popsical.tv/v3/songs.json?page=2&per_page=25"}}
